[
  {
    "ID": 1,
    "Has_Darts": 1,
    "Has_football": 0,
    "Has_pool": 0,
    "Beer_price": "1,4",
    "Cafe_price": "1,3",
    "Soda_price": "1,7",
    "Longitude": "41,42538541",
    "Latitude": "2,100997737",
    "Rate": "4,5"
  },
  {
    "ID": 2,
    "Has_Darts": 1,
    "Has_football": 1,
    "Has_pool": 0,
    "Beer_price": "1,5",
    "Cafe_price": "1,3",
    "Soda_price": "1,8",
    "Longitude": "41,39814754",
    "Latitude": "2,028078311",
    "Rate": 2
  },
  {
    "ID": 3,
    "Has_Darts": 0,
    "Has_football": 1,
    "Has_pool": 0,
    "Beer_price": "1,6",
    "Cafe_price": "1,2",
    "Soda_price": "1,7",
    "Longitude": "41,42297985",
    "Latitude": "2,02746995",
    "Rate": "0,5"
  },
  {
    "ID": 4,
    "Has_Darts": 1,
    "Has_football": 1,
    "Has_pool": 0,
    "Beer_price": "2,1",
    "Cafe_price": "1,5",
    "Soda_price": "2,1",
    "Longitude": "41,36165445",
    "Latitude": "2,100682014",
    "Rate": 1
  },
  {
    "ID": 5,
    "Has_Darts": 0,
    "Has_football": 1,
    "Has_pool": 1,
    "Beer_price": "1,8",
    "Cafe_price": "1,3",
    "Soda_price": "1,6",
    "Longitude": "41,3519359",
    "Latitude": "2,021652555",
    "Rate": 3
  },
  {
    "ID": 6,
    "Has_Darts": 1,
    "Has_football": 1,
    "Has_pool": 0,
    "Beer_price": "1,2",
    "Cafe_price": "1,6",
    "Soda_price": 2,
    "Longitude": "41,36961115",
    "Latitude": "2,052013565",
    "Rate": "3,5"
  },
  {
    "ID": 7,
    "Has_Darts": 0,
    "Has_football": 1,
    "Has_pool": 1,
    "Beer_price": "1,6",
    "Cafe_price": "1,2",
    "Soda_price": "1,7",
    "Longitude": "41,41110467",
    "Latitude": "2,081300363",
    "Rate": 1
  },
  {
    "ID": 8,
    "Has_Darts": 0,
    "Has_football": 1,
    "Has_pool": 0,
    "Beer_price": "1,8",
    "Cafe_price": "1,2",
    "Soda_price": "1,7",
    "Longitude": "41,39199024",
    "Latitude": "2,06433741",
    "Rate": "2,5"
  },
  {
    "ID": 9,
    "Has_Darts": 1,
    "Has_football": 0,
    "Has_pool": 1,
    "Beer_price": "1,3",
    "Cafe_price": "1,3",
    "Soda_price": 2,
    "Longitude": "41,36896852",
    "Latitude": "2,090384798",
    "Rate": 2
  },
  {
    "ID": 10,
    "Has_Darts": 0,
    "Has_football": 1,
    "Has_pool": 0,
    "Beer_price": "1,8",
    "Cafe_price": 1,
    "Soda_price": "1,8",
    "Longitude": "41,38939175",
    "Latitude": "2,027194976",
    "Rate": "2,5"
  },
  {
    "ID": 11,
    "Has_Darts": 1,
    "Has_football": 0,
    "Has_pool": 1,
    "Beer_price": "1,5",
    "Cafe_price": "1,1",
    "Soda_price": 2,
    "Longitude": "41,44064258",
    "Latitude": "2,08877256",
    "Rate": 0
  },
  {
    "ID": 12,
    "Has_Darts": 0,
    "Has_football": 1,
    "Has_pool": 0,
    "Beer_price": "1,5",
    "Cafe_price": "1,2",
    "Soda_price": "1,9",
    "Longitude": "41,4387537",
    "Latitude": "2,069360428",
    "Rate": 4
  },
  {
    "ID": 13,
    "Has_Darts": 1,
    "Has_football": 0,
    "Has_pool": 0,
    "Beer_price": "1,5",
    "Cafe_price": "1,3",
    "Soda_price": "1,9",
    "Longitude": "41,38772143",
    "Latitude": "2,078374226",
    "Rate": 2
  },
  {
    "ID": 14,
    "Has_Darts": 1,
    "Has_football": 0,
    "Has_pool": 0,
    "Beer_price": "1,7",
    "Cafe_price": "1,2",
    "Soda_price": "1,9",
    "Longitude": "41,44265704",
    "Latitude": "2,041829583",
    "Rate": "1,5"
  },
  {
    "ID": 15,
    "Has_Darts": 0,
    "Has_football": 0,
    "Has_pool": 0,
    "Beer_price": "1,3",
    "Cafe_price": 1,
    "Soda_price": "1,8",
    "Longitude": "41,38623845",
    "Latitude": "2,097292906",
    "Rate": 5
  },
  {
    "ID": 16,
    "Has_Darts": 1,
    "Has_football": 0,
    "Has_pool": 1,
    "Beer_price": "1,7",
    "Cafe_price": "1,2",
    "Soda_price": "2,1",
    "Longitude": "41,35956348",
    "Latitude": "2,040367335",
    "Rate": 0
  },
  {
    "ID": 17,
    "Has_Darts": 1,
    "Has_football": 0,
    "Has_pool": 1,
    "Beer_price": "1,8",
    "Cafe_price": 1,
    "Soda_price": "2,1",
    "Longitude": "41,37664651",
    "Latitude": "2,045254385",
    "Rate": 3
  },
  {
    "ID": 18,
    "Has_Darts": 0,
    "Has_football": 0,
    "Has_pool": 1,
    "Beer_price": "1,5",
    "Cafe_price": "1,1",
    "Soda_price": "1,9",
    "Longitude": "41,4432506",
    "Latitude": "2,06373953",
    "Rate": 3
  },
  {
    "ID": 19,
    "Has_Darts": 1,
    "Has_football": 0,
    "Has_pool": 0,
    "Beer_price": "1,5",
    "Cafe_price": "1,4",
    "Soda_price": "1,7",
    "Longitude": "41,39962138",
    "Latitude": "2,057386256",
    "Rate": 1
  },
  {
    "ID": 20,
    "Has_Darts": 0,
    "Has_football": 1,
    "Has_pool": 1,
    "Beer_price": "1,3",
    "Cafe_price": "1,1",
    "Soda_price": "1,6",
    "Longitude": "41,37755846",
    "Latitude": "2,072374612",
    "Rate": "0,5"
  },
  {
    "ID": 21,
    "Has_Darts": 1,
    "Has_football": 0,
    "Has_pool": 1,
    "Beer_price": "1,9",
    "Cafe_price": "1,4",
    "Soda_price": "1,7",
    "Longitude": "41,39146513",
    "Latitude": "2,046686812",
    "Rate": 4
  },
  {
    "ID": 22,
    "Has_Darts": 1,
    "Has_football": 0,
    "Has_pool": 1,
    "Beer_price": "1,7",
    "Cafe_price": "1,1",
    "Soda_price": 2,
    "Longitude": "41,37906476",
    "Latitude": "2,007881689",
    "Rate": 5
  },
  {
    "ID": 23,
    "Has_Darts": 0,
    "Has_football": 0,
    "Has_pool": 0,
    "Beer_price": "1,4",
    "Cafe_price": "1,2",
    "Soda_price": 2,
    "Longitude": "41,41413572",
    "Latitude": "2,056849993",
    "Rate": 4
  },
  {
    "ID": 24,
    "Has_Darts": 0,
    "Has_football": 1,
    "Has_pool": 1,
    "Beer_price": "1,5",
    "Cafe_price": "1,3",
    "Soda_price": "1,8",
    "Longitude": "41,40129831",
    "Latitude": "2,090761619",
    "Rate": "1,5"
  },
  {
    "ID": 25,
    "Has_Darts": 1,
    "Has_football": 0,
    "Has_pool": 0,
    "Beer_price": "1,8",
    "Cafe_price": "0,9",
    "Soda_price": "1,5",
    "Longitude": "41,3760594",
    "Latitude": "2,076892364",
    "Rate": 2
  },
  {
    "ID": 26,
    "Has_Darts": 0,
    "Has_football": 0,
    "Has_pool": 0,
    "Beer_price": "1,7",
    "Cafe_price": "1,1",
    "Soda_price": "1,3",
    "Longitude": "41,42779695",
    "Latitude": "2,023700796",
    "Rate": 3
  },
  {
    "ID": 27,
    "Has_Darts": 0,
    "Has_football": 1,
    "Has_pool": 0,
    "Beer_price": "1,5",
    "Cafe_price": 1,
    "Soda_price": "1,9",
    "Longitude": "41,36649817",
    "Latitude": "2,020404776",
    "Rate": "3,5"
  },
  {
    "ID": 28,
    "Has_Darts": 1,
    "Has_football": 1,
    "Has_pool": 0,
    "Beer_price": "1,5",
    "Cafe_price": "1,3",
    "Soda_price": "1,9",
    "Longitude": "41,42550806",
    "Latitude": "2,077072153",
    "Rate": 2
  },
  {
    "ID": 29,
    "Has_Darts": 1,
    "Has_football": 1,
    "Has_pool": 1,
    "Beer_price": "1,4",
    "Cafe_price": "1,5",
    "Soda_price": 2,
    "Longitude": "41,3673241",
    "Latitude": "2,061162084",
    "Rate": 1
  },
  {
    "ID": 30,
    "Has_Darts": 0,
    "Has_football": 1,
    "Has_pool": 0,
    "Beer_price": "1,3",
    "Cafe_price": "1,3",
    "Soda_price": "1,9",
    "Longitude": "41,37147893",
    "Latitude": "2,062248631",
    "Rate": 4
  },
  {
    "ID": 31,
    "Has_Darts": 0,
    "Has_football": 0,
    "Has_pool": 1,
    "Beer_price": "1,8",
    "Cafe_price": "1,4",
    "Soda_price": 2,
    "Longitude": "41,37182197",
    "Latitude": "2,084371904",
    "Rate": 3
  },
  {
    "ID": 32,
    "Has_Darts": 0,
    "Has_football": 1,
    "Has_pool": 1,
    "Beer_price": "1,4",
    "Cafe_price": "1,1",
    "Soda_price": "1,8",
    "Longitude": "41,41548677",
    "Latitude": "2,014167981",
    "Rate": 4
  },
  {
    "ID": 33,
    "Has_Darts": 0,
    "Has_football": 0,
    "Has_pool": 0,
    "Beer_price": "1,9",
    "Cafe_price": "0,8",
    "Soda_price": "1,4",
    "Longitude": "41,39677161",
    "Latitude": "2,092152034",
    "Rate": "1,5"
  },
  {
    "ID": 34,
    "Has_Darts": 0,
    "Has_football": 1,
    "Has_pool": 0,
    "Beer_price": "1,4",
    "Cafe_price": "1,6",
    "Soda_price": "2,3",
    "Longitude": "41,36227817",
    "Latitude": "2,052310648",
    "Rate": 2
  },
  {
    "ID": 35,
    "Has_Darts": 1,
    "Has_football": 0,
    "Has_pool": 0,
    "Beer_price": "1,7",
    "Cafe_price": "1,4",
    "Soda_price": "2,4",
    "Longitude": "41,41879969",
    "Latitude": "2,04574285",
    "Rate": 0
  },
  {
    "ID": 36,
    "Has_Darts": 0,
    "Has_football": 1,
    "Has_pool": 1,
    "Beer_price": "1,2",
    "Cafe_price": "1,1",
    "Soda_price": "1,4",
    "Longitude": "41,36514042",
    "Latitude": "2,072766379",
    "Rate": 4
  },
  {
    "ID": 37,
    "Has_Darts": 1,
    "Has_football": 0,
    "Has_pool": 0,
    "Beer_price": "1,5",
    "Cafe_price": "1,4",
    "Soda_price": "1,3",
    "Longitude": "41,43576896",
    "Latitude": "2,030030894",
    "Rate": 0
  },
  {
    "ID": 38,
    "Has_Darts": 1,
    "Has_football": 0,
    "Has_pool": 1,
    "Beer_price": 1,
    "Cafe_price": "1,5",
    "Soda_price": "2,3",
    "Longitude": "41,42391144",
    "Latitude": "2,050755135",
    "Rate": 2
  },
  {
    "ID": 39,
    "Has_Darts": 1,
    "Has_football": 1,
    "Has_pool": 0,
    "Beer_price": "1,7",
    "Cafe_price": "1,4",
    "Soda_price": "2,3",
    "Longitude": "41,36387298",
    "Latitude": "2,03991559",
    "Rate": "2,5"
  },
  {
    "ID": 40,
    "Has_Darts": 0,
    "Has_football": 0,
    "Has_pool": 1,
    "Beer_price": "1,6",
    "Cafe_price": "1,2",
    "Soda_price": "1,8",
    "Longitude": "41,40514733",
    "Latitude": "2,072683867",
    "Rate": "0,5"
  },
  {
    "ID": 41,
    "Has_Darts": 0,
    "Has_football": 0,
    "Has_pool": 0,
    "Beer_price": "1,8",
    "Cafe_price": "1,3",
    "Soda_price": "1,6",
    "Longitude": "41,44181276",
    "Latitude": "2,049793098",
    "Rate": 2
  },
  {
    "ID": 42,
    "Has_Darts": 1,
    "Has_football": 1,
    "Has_pool": 0,
    "Beer_price": "1,7",
    "Cafe_price": "1,2",
    "Soda_price": 2,
    "Longitude": "41,35214315",
    "Latitude": "2,086742283",
    "Rate": "1,5"
  },
  {
    "ID": 43,
    "Has_Darts": 1,
    "Has_football": 0,
    "Has_pool": 1,
    "Beer_price": "0,9",
    "Cafe_price": 1,
    "Soda_price": "1,7",
    "Longitude": "41,36416845",
    "Latitude": "2,036264496",
    "Rate": "4,5"
  },
  {
    "ID": 44,
    "Has_Darts": 0,
    "Has_football": 0,
    "Has_pool": 1,
    "Beer_price": "1,6",
    "Cafe_price": "1,2",
    "Soda_price": "1,6",
    "Longitude": "41,36700625",
    "Latitude": "2,084620603",
    "Rate": "4,5"
  },
  {
    "ID": 45,
    "Has_Darts": 1,
    "Has_football": 0,
    "Has_pool": 0,
    "Beer_price": "1,6",
    "Cafe_price": "1,2",
    "Soda_price": "1,8",
    "Longitude": "41,38208905",
    "Latitude": "2,075808749",
    "Rate": "4,5"
  },
  {
    "ID": 46,
    "Has_Darts": 0,
    "Has_football": 0,
    "Has_pool": 1,
    "Beer_price": 1,
    "Cafe_price": "1,2",
    "Soda_price": "2,1",
    "Longitude": "41,38761543",
    "Latitude": "2,03922239",
    "Rate": 2
  },
  {
    "ID": 47,
    "Has_Darts": 1,
    "Has_football": 1,
    "Has_pool": 0,
    "Beer_price": "1,7",
    "Cafe_price": "1,5",
    "Soda_price": 2,
    "Longitude": "41,3725869",
    "Latitude": "2,083687228",
    "Rate": 3
  },
  {
    "ID": 48,
    "Has_Darts": 1,
    "Has_football": 0,
    "Has_pool": 0,
    "Beer_price": "1,5",
    "Cafe_price": "1,7",
    "Soda_price": "1,9",
    "Longitude": "41,35799696",
    "Latitude": "2,006912159",
    "Rate": 1
  },
  {
    "ID": 49,
    "Has_Darts": 0,
    "Has_football": 1,
    "Has_pool": 1,
    "Beer_price": "1,4",
    "Cafe_price": "1,3",
    "Soda_price": "1,6",
    "Longitude": "41,36781073",
    "Latitude": "2,023881048",
    "Rate": "2,5"
  },
  {
    "ID": 50,
    "Has_Darts": 0,
    "Has_football": 0,
    "Has_pool": 1,
    "Beer_price": "1,4",
    "Cafe_price": "1,3",
    "Soda_price": "1,9",
    "Longitude": "41,35413635",
    "Latitude": "2,012622911",
    "Rate": 5
  },
  {
    "ID": 51,
    "Has_Darts": 0,
    "Has_football": 1,
    "Has_pool": 0,
    "Beer_price": "1,1",
    "Cafe_price": "1,3",
    "Soda_price": "1,5",
    "Longitude": "41,43301433",
    "Latitude": "2,081971933",
    "Rate": 4
  },
  {
    "ID": 52,
    "Has_Darts": 0,
    "Has_football": 0,
    "Has_pool": 0,
    "Beer_price": "1,1",
    "Cafe_price": "1,4",
    "Soda_price": "2,2",
    "Longitude": "41,35498766",
    "Latitude": "2,045595494",
    "Rate": 5
  },
  {
    "ID": 53,
    "Has_Darts": 1,
    "Has_football": 1,
    "Has_pool": 1,
    "Beer_price": "1,5",
    "Cafe_price": "1,2",
    "Soda_price": "1,9",
    "Longitude": "41,37168354",
    "Latitude": "2,018407068",
    "Rate": 4
  },
  {
    "ID": 54,
    "Has_Darts": 1,
    "Has_football": 0,
    "Has_pool": 0,
    "Beer_price": "1,9",
    "Cafe_price": "1,4",
    "Soda_price": "1,8",
    "Longitude": "41,38893367",
    "Latitude": "2,081600265",
    "Rate": "3,5"
  },
  {
    "ID": 55,
    "Has_Darts": 0,
    "Has_football": 1,
    "Has_pool": 0,
    "Beer_price": "1,4",
    "Cafe_price": "1,6",
    "Soda_price": "1,9",
    "Longitude": "41,40629252",
    "Latitude": "2,090847951",
    "Rate": 3
  },
  {
    "ID": 56,
    "Has_Darts": 0,
    "Has_football": 1,
    "Has_pool": 0,
    "Beer_price": "1,6",
    "Cafe_price": "1,4",
    "Soda_price": "2,4",
    "Longitude": "41,3931643",
    "Latitude": "2,036134808",
    "Rate": "1,5"
  },
  {
    "ID": 57,
    "Has_Darts": 1,
    "Has_football": 1,
    "Has_pool": 0,
    "Beer_price": "0,9",
    "Cafe_price": "1,6",
    "Soda_price": "1,3",
    "Longitude": "41,36497484",
    "Latitude": "2,022049216",
    "Rate": "0,5"
  },
  {
    "ID": 58,
    "Has_Darts": 1,
    "Has_football": 1,
    "Has_pool": 0,
    "Beer_price": "1,5",
    "Cafe_price": "1,4",
    "Soda_price": "2,2",
    "Longitude": "41,41554701",
    "Latitude": "2,069336373",
    "Rate": 5
  },
  {
    "ID": 59,
    "Has_Darts": 1,
    "Has_football": 0,
    "Has_pool": 0,
    "Beer_price": "1,8",
    "Cafe_price": "1,3",
    "Soda_price": "1,5",
    "Longitude": "41,37628906",
    "Latitude": "2,099994405",
    "Rate": "0,5"
  },
  {
    "ID": 60,
    "Has_Darts": 1,
    "Has_football": 1,
    "Has_pool": 1,
    "Beer_price": "1,4",
    "Cafe_price": "1,2",
    "Soda_price": "2,1",
    "Longitude": "41,374586",
    "Latitude": "2,068115632",
    "Rate": "2,5"
  },
  {
    "ID": 61,
    "Has_Darts": 0,
    "Has_football": 1,
    "Has_pool": 1,
    "Beer_price": "1,3",
    "Cafe_price": "1,1",
    "Soda_price": 2,
    "Longitude": "41,36901069",
    "Latitude": "2,096964636",
    "Rate": 2
  },
  {
    "ID": 62,
    "Has_Darts": 0,
    "Has_football": 1,
    "Has_pool": 0,
    "Beer_price": 2,
    "Cafe_price": "1,3",
    "Soda_price": "1,5",
    "Longitude": "41,42252253",
    "Latitude": "2,068667966",
    "Rate": 4
  },
  {
    "ID": 63,
    "Has_Darts": 1,
    "Has_football": 0,
    "Has_pool": 0,
    "Beer_price": "1,4",
    "Cafe_price": "1,2",
    "Soda_price": "1,7",
    "Longitude": "41,41704189",
    "Latitude": "2,040240401",
    "Rate": 3
  },
  {
    "ID": 64,
    "Has_Darts": 1,
    "Has_football": 1,
    "Has_pool": 0,
    "Beer_price": "1,1",
    "Cafe_price": "1,1",
    "Soda_price": "1,9",
    "Longitude": "41,3836887",
    "Latitude": "2,073551245",
    "Rate": "3,5"
  },
  {
    "ID": 65,
    "Has_Darts": 0,
    "Has_football": 1,
    "Has_pool": 1,
    "Beer_price": "1,5",
    "Cafe_price": "1,5",
    "Soda_price": "1,8",
    "Longitude": "41,41942623",
    "Latitude": "2,04135591",
    "Rate": 5
  },
  {
    "ID": 66,
    "Has_Darts": 0,
    "Has_football": 0,
    "Has_pool": 1,
    "Beer_price": "1,5",
    "Cafe_price": "1,3",
    "Soda_price": 2,
    "Longitude": "41,35932398",
    "Latitude": "2,035919304",
    "Rate": "3,5"
  },
  {
    "ID": 67,
    "Has_Darts": 0,
    "Has_football": 1,
    "Has_pool": 1,
    "Beer_price": "1,3",
    "Cafe_price": "1,2",
    "Soda_price": "1,9",
    "Longitude": "41,39291671",
    "Latitude": "2,014650702",
    "Rate": "0,5"
  },
  {
    "ID": 68,
    "Has_Darts": 0,
    "Has_football": 0,
    "Has_pool": 1,
    "Beer_price": "1,6",
    "Cafe_price": "1,3",
    "Soda_price": 2,
    "Longitude": "41,3792315",
    "Latitude": "2,051099384",
    "Rate": "0,5"
  },
  {
    "ID": 69,
    "Has_Darts": 1,
    "Has_football": 0,
    "Has_pool": 1,
    "Beer_price": "1,5",
    "Cafe_price": "1,5",
    "Soda_price": "1,8",
    "Longitude": "41,38973731",
    "Latitude": "2,064624688",
    "Rate": "4,5"
  },
  {
    "ID": 70,
    "Has_Darts": 1,
    "Has_football": 0,
    "Has_pool": 1,
    "Beer_price": "1,5",
    "Cafe_price": "1,4",
    "Soda_price": "1,7",
    "Longitude": "41,35999291",
    "Latitude": "2,079027281",
    "Rate": 4
  },
  {
    "ID": 71,
    "Has_Darts": 1,
    "Has_football": 0,
    "Has_pool": 0,
    "Beer_price": "1,5",
    "Cafe_price": "1,3",
    "Soda_price": "1,8",
    "Longitude": "41,42529633",
    "Latitude": "2,090522322",
    "Rate": 2
  },
  {
    "ID": 72,
    "Has_Darts": 1,
    "Has_football": 1,
    "Has_pool": 0,
    "Beer_price": "1,5",
    "Cafe_price": "1,2",
    "Soda_price": "2,1",
    "Longitude": "41,38427412",
    "Latitude": "2,006527677",
    "Rate": "1,5"
  },
  {
    "ID": 73,
    "Has_Darts": 1,
    "Has_football": 0,
    "Has_pool": 0,
    "Beer_price": "1,6",
    "Cafe_price": 1,
    "Soda_price": 2,
    "Longitude": "41,42064919",
    "Latitude": "2,086964452",
    "Rate": "2,5"
  },
  {
    "ID": 74,
    "Has_Darts": 0,
    "Has_football": 0,
    "Has_pool": 1,
    "Beer_price": "1,1",
    "Cafe_price": "1,5",
    "Soda_price": "1,5",
    "Longitude": "41,42172536",
    "Latitude": "2,009504482",
    "Rate": 3
  },
  {
    "ID": 75,
    "Has_Darts": 0,
    "Has_football": 0,
    "Has_pool": 1,
    "Beer_price": "1,5",
    "Cafe_price": 1,
    "Soda_price": "1,1",
    "Longitude": "41,37506879",
    "Latitude": "2,017099265",
    "Rate": "3,5"
  },
  {
    "ID": 76,
    "Has_Darts": 1,
    "Has_football": 0,
    "Has_pool": 1,
    "Beer_price": "1,3",
    "Cafe_price": "0,9",
    "Soda_price": "1,6",
    "Longitude": "41,42546531",
    "Latitude": "2,052008316",
    "Rate": 4
  },
  {
    "ID": 77,
    "Has_Darts": 1,
    "Has_football": 1,
    "Has_pool": 1,
    "Beer_price": "1,3",
    "Cafe_price": "1,6",
    "Soda_price": 2,
    "Longitude": "41,3888926",
    "Latitude": "2,014429504",
    "Rate": "0,5"
  },
  {
    "ID": 78,
    "Has_Darts": 1,
    "Has_football": 0,
    "Has_pool": 0,
    "Beer_price": "1,5",
    "Cafe_price": "1,3",
    "Soda_price": 2,
    "Longitude": "41,36659981",
    "Latitude": "2,051382252",
    "Rate": 3
  },
  {
    "ID": 79,
    "Has_Darts": 0,
    "Has_football": 1,
    "Has_pool": 0,
    "Beer_price": "1,3",
    "Cafe_price": "1,3",
    "Soda_price": "1,4",
    "Longitude": "41,36630304",
    "Latitude": "2,008615147",
    "Rate": 4
  },
  {
    "ID": 80,
    "Has_Darts": 1,
    "Has_football": 1,
    "Has_pool": 1,
    "Beer_price": "1,6",
    "Cafe_price": "1,3",
    "Soda_price": "1,9",
    "Longitude": "41,38987835",
    "Latitude": "2,039245107",
    "Rate": "2,5"
  },
  {
    "ID": 81,
    "Has_Darts": 1,
    "Has_football": 1,
    "Has_pool": 0,
    "Beer_price": "1,3",
    "Cafe_price": "1,5",
    "Soda_price": "1,6",
    "Longitude": "41,40841422",
    "Latitude": "2,039068046",
    "Rate": 3
  },
  {
    "ID": 82,
    "Has_Darts": 0,
    "Has_football": 1,
    "Has_pool": 1,
    "Beer_price": "1,5",
    "Cafe_price": "1,5",
    "Soda_price": "1,8",
    "Longitude": "41,3947925",
    "Latitude": "2,068207235",
    "Rate": "2,5"
  },
  {
    "ID": 83,
    "Has_Darts": 1,
    "Has_football": 1,
    "Has_pool": 1,
    "Beer_price": "1,1",
    "Cafe_price": "1,5",
    "Soda_price": "1,7",
    "Longitude": "41,40323307",
    "Latitude": "2,016110326",
    "Rate": 2
  },
  {
    "ID": 84,
    "Has_Darts": 0,
    "Has_football": 0,
    "Has_pool": 0,
    "Beer_price": 1,
    "Cafe_price": 1,
    "Soda_price": "1,9",
    "Longitude": "41,39177375",
    "Latitude": "2,075096561",
    "Rate": 1
  },
  {
    "ID": 85,
    "Has_Darts": 0,
    "Has_football": 0,
    "Has_pool": 1,
    "Beer_price": "1,6",
    "Cafe_price": "1,5",
    "Soda_price": "1,7",
    "Longitude": "41,36281916",
    "Latitude": "2,071865642",
    "Rate": "3,5"
  },
  {
    "ID": 86,
    "Has_Darts": 1,
    "Has_football": 0,
    "Has_pool": 0,
    "Beer_price": "1,7",
    "Cafe_price": "1,3",
    "Soda_price": "1,9",
    "Longitude": "41,36758786",
    "Latitude": "2,040789578",
    "Rate": "4,5"
  },
  {
    "ID": 87,
    "Has_Darts": 0,
    "Has_football": 1,
    "Has_pool": 1,
    "Beer_price": "1,2",
    "Cafe_price": "0,9",
    "Soda_price": "1,9",
    "Longitude": "41,41201974",
    "Latitude": "2,067521755",
    "Rate": "3,5"
  },
  {
    "ID": 88,
    "Has_Darts": 0,
    "Has_football": 1,
    "Has_pool": 0,
    "Beer_price": "1,8",
    "Cafe_price": "1,4",
    "Soda_price": "1,6",
    "Longitude": "41,4247352",
    "Latitude": "2,082624566",
    "Rate": 1
  },
  {
    "ID": 89,
    "Has_Darts": 0,
    "Has_football": 1,
    "Has_pool": 0,
    "Beer_price": "1,7",
    "Cafe_price": "1,3",
    "Soda_price": "2,1",
    "Longitude": "41,40104309",
    "Latitude": "2,019534916",
    "Rate": 4
  },
  {
    "ID": 90,
    "Has_Darts": 1,
    "Has_football": 1,
    "Has_pool": 0,
    "Beer_price": "1,5",
    "Cafe_price": "1,5",
    "Soda_price": "1,7",
    "Longitude": "41,36806258",
    "Latitude": "2,04447857",
    "Rate": 4
  },
  {
    "ID": 91,
    "Has_Darts": 0,
    "Has_football": 0,
    "Has_pool": 0,
    "Beer_price": "1,6",
    "Cafe_price": 1,
    "Soda_price": "1,7",
    "Longitude": "41,44180608",
    "Latitude": "2,089157516",
    "Rate": 5
  },
  {
    "ID": 92,
    "Has_Darts": 1,
    "Has_football": 1,
    "Has_pool": 0,
    "Beer_price": "1,6",
    "Cafe_price": "1,4",
    "Soda_price": "2,2",
    "Longitude": "41,36143312",
    "Latitude": "2,033555429",
    "Rate": 3
  },
  {
    "ID": 93,
    "Has_Darts": 0,
    "Has_football": 1,
    "Has_pool": 0,
    "Beer_price": "1,7",
    "Cafe_price": "1,3",
    "Soda_price": "1,8",
    "Longitude": "41,43243376",
    "Latitude": "2,044314384",
    "Rate": "1,5"
  },
  {
    "ID": 94,
    "Has_Darts": 1,
    "Has_football": 0,
    "Has_pool": 0,
    "Beer_price": "1,5",
    "Cafe_price": 1,
    "Soda_price": "2,4",
    "Longitude": "41,35193773",
    "Latitude": "2,038923313",
    "Rate": 1
  },
  {
    "ID": 95,
    "Has_Darts": 0,
    "Has_football": 0,
    "Has_pool": 1,
    "Beer_price": "1,8",
    "Cafe_price": "1,4",
    "Soda_price": "1,5",
    "Longitude": "41,4119899",
    "Latitude": "2,03673058",
    "Rate": "4,5"
  },
  {
    "ID": 96,
    "Has_Darts": 0,
    "Has_football": 1,
    "Has_pool": 0,
    "Beer_price": "1,3",
    "Cafe_price": "1,2",
    "Soda_price": "1,8",
    "Longitude": "41,39649786",
    "Latitude": "2,025622684",
    "Rate": "4,5"
  },
  {
    "ID": 97,
    "Has_Darts": 0,
    "Has_football": 1,
    "Has_pool": 0,
    "Beer_price": "2,3",
    "Cafe_price": "1,2",
    "Soda_price": "1,9",
    "Longitude": "41,36017836",
    "Latitude": "2,021828034",
    "Rate": "0,5"
  },
  {
    "ID": 98,
    "Has_Darts": 1,
    "Has_football": 0,
    "Has_pool": 1,
    "Beer_price": "1,5",
    "Cafe_price": "1,4",
    "Soda_price": 2,
    "Longitude": "41,38501704",
    "Latitude": "2,017051402",
    "Rate": 2
  },
  {
    "ID": 99,
    "Has_Darts": 1,
    "Has_football": 1,
    "Has_pool": 0,
    "Beer_price": "1,2",
    "Cafe_price": "0,9",
    "Soda_price": "2,3",
    "Longitude": "41,42425735",
    "Latitude": "2,096178832",
    "Rate": "2,5"
  },
  {
    "ID": 100,
    "Has_Darts": 0,
    "Has_football": 0,
    "Has_pool": 1,
    "Beer_price": "1,4",
    "Cafe_price": "1,5",
    "Soda_price": "2,1",
    "Longitude": "41,38753306",
    "Latitude": "2,008490831",
    "Rate": "0,5"
  },
  {
    "ID": 101,
    "Has_Darts": 0,
    "Has_football": 1,
    "Has_pool": 1,
    "Beer_price": "1,9",
    "Cafe_price": "1,5",
    "Soda_price": "1,9",
    "Longitude": "41,39339792",
    "Latitude": "2,101744065",
    "Rate": "1,5"
  },
  {
    "ID": 102,
    "Has_Darts": 0,
    "Has_football": 1,
    "Has_pool": 0,
    "Beer_price": "1,7",
    "Cafe_price": "1,3",
    "Soda_price": "1,3",
    "Longitude": "41,42574414",
    "Latitude": "2,025078814",
    "Rate": "0,5"
  },
  {
    "ID": 103,
    "Has_Darts": 0,
    "Has_football": 0,
    "Has_pool": 1,
    "Beer_price": "1,6",
    "Cafe_price": "1,6",
    "Soda_price": "1,8",
    "Longitude": "41,36740076",
    "Latitude": "2,070561354",
    "Rate": "0,5"
  },
  {
    "ID": 104,
    "Has_Darts": 0,
    "Has_football": 0,
    "Has_pool": 1,
    "Beer_price": "1,4",
    "Cafe_price": "1,5",
    "Soda_price": "2,4",
    "Longitude": "41,3909288",
    "Latitude": "2,073935569",
    "Rate": 4
  },
  {
    "ID": 105,
    "Has_Darts": 0,
    "Has_football": 1,
    "Has_pool": 0,
    "Beer_price": "1,1",
    "Cafe_price": "1,6",
    "Soda_price": "1,8",
    "Longitude": "41,41612056",
    "Latitude": "2,053707336",
    "Rate": 4
  },
  {
    "ID": 106,
    "Has_Darts": 1,
    "Has_football": 0,
    "Has_pool": 1,
    "Beer_price": "1,8",
    "Cafe_price": "1,1",
    "Soda_price": "1,1",
    "Longitude": "41,37064755",
    "Latitude": "2,045069792",
    "Rate": "2,5"
  },
  {
    "ID": 107,
    "Has_Darts": 1,
    "Has_football": 1,
    "Has_pool": 1,
    "Beer_price": "1,4",
    "Cafe_price": 1,
    "Soda_price": "1,4",
    "Longitude": "41,4274749",
    "Latitude": "2,055467228",
    "Rate": 2
  },
  {
    "ID": 108,
    "Has_Darts": 1,
    "Has_football": 1,
    "Has_pool": 1,
    "Beer_price": "1,1",
    "Cafe_price": "1,7",
    "Soda_price": "1,9",
    "Longitude": "41,43636327",
    "Latitude": "2,064692144",
    "Rate": 0
  },
  {
    "ID": 109,
    "Has_Darts": 1,
    "Has_football": 1,
    "Has_pool": 1,
    "Beer_price": "1,7",
    "Cafe_price": "1,6",
    "Soda_price": "1,9",
    "Longitude": "41,42670797",
    "Latitude": "2,101571425",
    "Rate": 4
  },
  {
    "ID": 110,
    "Has_Darts": 0,
    "Has_football": 1,
    "Has_pool": 1,
    "Beer_price": "1,4",
    "Cafe_price": "1,4",
    "Soda_price": "1,8",
    "Longitude": "41,36001198",
    "Latitude": "2,045871512",
    "Rate": 2
  },
  {
    "ID": 111,
    "Has_Darts": 1,
    "Has_football": 0,
    "Has_pool": 0,
    "Beer_price": "1,8",
    "Cafe_price": "1,2",
    "Soda_price": "1,7",
    "Longitude": "41,42165536",
    "Latitude": "2,047027517",
    "Rate": "0,5"
  },
  {
    "ID": 112,
    "Has_Darts": 0,
    "Has_football": 1,
    "Has_pool": 1,
    "Beer_price": "1,8",
    "Cafe_price": "1,4",
    "Soda_price": "1,9",
    "Longitude": "41,38588293",
    "Latitude": "2,026755152",
    "Rate": "0,5"
  },
  {
    "ID": 113,
    "Has_Darts": 1,
    "Has_football": 1,
    "Has_pool": 1,
    "Beer_price": "1,6",
    "Cafe_price": 1,
    "Soda_price": "1,4",
    "Longitude": "41,39927863",
    "Latitude": "2,049513711",
    "Rate": "0,5"
  },
  {
    "ID": 114,
    "Has_Darts": 0,
    "Has_football": 0,
    "Has_pool": 1,
    "Beer_price": "1,9",
    "Cafe_price": "1,4",
    "Soda_price": "1,8",
    "Longitude": "41,43903697",
    "Latitude": "2,053915425",
    "Rate": 0
  },
  {
    "ID": 115,
    "Has_Darts": 1,
    "Has_football": 1,
    "Has_pool": 0,
    "Beer_price": "1,8",
    "Cafe_price": "1,5",
    "Soda_price": "1,7",
    "Longitude": "41,40860555",
    "Latitude": "2,056375246",
    "Rate": 4
  },
  {
    "ID": 116,
    "Has_Darts": 1,
    "Has_football": 0,
    "Has_pool": 0,
    "Beer_price": "1,5",
    "Cafe_price": "1,7",
    "Soda_price": "1,4",
    "Longitude": "41,39916784",
    "Latitude": "2,05365421",
    "Rate": "3,5"
  },
  {
    "ID": 117,
    "Has_Darts": 1,
    "Has_football": 0,
    "Has_pool": 1,
    "Beer_price": "2,2",
    "Cafe_price": "1,3",
    "Soda_price": "1,9",
    "Longitude": "41,39636381",
    "Latitude": "2,03992095",
    "Rate": "4,5"
  },
  {
    "ID": 118,
    "Has_Darts": 0,
    "Has_football": 0,
    "Has_pool": 0,
    "Beer_price": "1,6",
    "Cafe_price": "1,5",
    "Soda_price": "2,3",
    "Longitude": "41,40271372",
    "Latitude": "2,076132874",
    "Rate": 2
  },
  {
    "ID": 119,
    "Has_Darts": 0,
    "Has_football": 1,
    "Has_pool": 1,
    "Beer_price": "1,3",
    "Cafe_price": "1,3",
    "Soda_price": "1,6",
    "Longitude": "41,43511868",
    "Latitude": "2,011449354",
    "Rate": 3
  },
  {
    "ID": 120,
    "Has_Darts": 0,
    "Has_football": 1,
    "Has_pool": 1,
    "Beer_price": "1,7",
    "Cafe_price": "1,4",
    "Soda_price": "1,8",
    "Longitude": "41,39003223",
    "Latitude": "2,051547721",
    "Rate": "2,5"
  },
  {
    "ID": 121,
    "Has_Darts": 0,
    "Has_football": 0,
    "Has_pool": 0,
    "Beer_price": "1,7",
    "Cafe_price": "1,2",
    "Soda_price": "2,3",
    "Longitude": "41,4358594",
    "Latitude": "2,062123123",
    "Rate": "2,5"
  },
  {
    "ID": 122,
    "Has_Darts": 1,
    "Has_football": 0,
    "Has_pool": 0,
    "Beer_price": "1,3",
    "Cafe_price": "1,4",
    "Soda_price": "1,5",
    "Longitude": "41,36816397",
    "Latitude": "2,056741848",
    "Rate": 0
  },
  {
    "ID": 123,
    "Has_Darts": 0,
    "Has_football": 1,
    "Has_pool": 0,
    "Beer_price": "1,5",
    "Cafe_price": "1,6",
    "Soda_price": "2,5",
    "Longitude": "41,4379092",
    "Latitude": "2,043563989",
    "Rate": 2
  },
  {
    "ID": 124,
    "Has_Darts": 0,
    "Has_football": 0,
    "Has_pool": 0,
    "Beer_price": "1,9",
    "Cafe_price": "1,4",
    "Soda_price": "1,9",
    "Longitude": "41,3832695",
    "Latitude": "2,055631983",
    "Rate": "4,5"
  },
  {
    "ID": 125,
    "Has_Darts": 1,
    "Has_football": 0,
    "Has_pool": 0,
    "Beer_price": "1,6",
    "Cafe_price": "1,1",
    "Soda_price": "2,5",
    "Longitude": "41,41778554",
    "Latitude": "2,071385153",
    "Rate": 3
  },
  {
    "ID": 126,
    "Has_Darts": 0,
    "Has_football": 1,
    "Has_pool": 1,
    "Beer_price": "1,5",
    "Cafe_price": "1,2",
    "Soda_price": "1,8",
    "Longitude": "41,43126983",
    "Latitude": "2,051216547",
    "Rate": 5
  },
  {
    "ID": 127,
    "Has_Darts": 1,
    "Has_football": 1,
    "Has_pool": 0,
    "Beer_price": "1,4",
    "Cafe_price": "1,4",
    "Soda_price": "1,8",
    "Longitude": "41,36481885",
    "Latitude": "2,098775864",
    "Rate": "0,5"
  },
  {
    "ID": 128,
    "Has_Darts": 1,
    "Has_football": 1,
    "Has_pool": 0,
    "Beer_price": "1,3",
    "Cafe_price": "1,3",
    "Soda_price": "1,6",
    "Longitude": "41,36529414",
    "Latitude": "2,052207063",
    "Rate": 2
  },
  {
    "ID": 129,
    "Has_Darts": 1,
    "Has_football": 1,
    "Has_pool": 1,
    "Beer_price": "1,1",
    "Cafe_price": "1,3",
    "Soda_price": "1,8",
    "Longitude": "41,38918491",
    "Latitude": "2,041131269",
    "Rate": 2
  },
  {
    "ID": 130,
    "Has_Darts": 0,
    "Has_football": 0,
    "Has_pool": 0,
    "Beer_price": "1,2",
    "Cafe_price": "1,6",
    "Soda_price": "1,6",
    "Longitude": "41,41004703",
    "Latitude": "2,052601505",
    "Rate": 2
  },
  {
    "ID": 131,
    "Has_Darts": 0,
    "Has_football": 1,
    "Has_pool": 1,
    "Beer_price": "1,7",
    "Cafe_price": "1,4",
    "Soda_price": "1,8",
    "Longitude": "41,37069186",
    "Latitude": "2,075533405",
    "Rate": 3
  },
  {
    "ID": 132,
    "Has_Darts": 1,
    "Has_football": 1,
    "Has_pool": 0,
    "Beer_price": "1,5",
    "Cafe_price": "0,9",
    "Soda_price": "2,1",
    "Longitude": "41,41459241",
    "Latitude": "2,056263319",
    "Rate": "2,5"
  },
  {
    "ID": 133,
    "Has_Darts": 0,
    "Has_football": 1,
    "Has_pool": 1,
    "Beer_price": "1,3",
    "Cafe_price": "1,2",
    "Soda_price": "1,2",
    "Longitude": "41,37219488",
    "Latitude": "2,047241224",
    "Rate": "1,5"
  },
  {
    "ID": 134,
    "Has_Darts": 0,
    "Has_football": 1,
    "Has_pool": 1,
    "Beer_price": "1,4",
    "Cafe_price": "1,5",
    "Soda_price": "1,5",
    "Longitude": "41,3778473",
    "Latitude": "2,040983116",
    "Rate": "2,5"
  },
  {
    "ID": 135,
    "Has_Darts": 0,
    "Has_football": 0,
    "Has_pool": 1,
    "Beer_price": "1,6",
    "Cafe_price": "1,4",
    "Soda_price": 2,
    "Longitude": "41,43827256",
    "Latitude": "2,060703149",
    "Rate": "1,5"
  },
  {
    "ID": 136,
    "Has_Darts": 0,
    "Has_football": 0,
    "Has_pool": 0,
    "Beer_price": "1,3",
    "Cafe_price": "1,1",
    "Soda_price": "1,9",
    "Longitude": "41,39846285",
    "Latitude": "2,095056833",
    "Rate": 3
  },
  {
    "ID": 137,
    "Has_Darts": 0,
    "Has_football": 0,
    "Has_pool": 1,
    "Beer_price": "0,9",
    "Cafe_price": "1,5",
    "Soda_price": "1,8",
    "Longitude": "41,43473968",
    "Latitude": "2,064729421",
    "Rate": 4
  },
  {
    "ID": 138,
    "Has_Darts": 0,
    "Has_football": 1,
    "Has_pool": 0,
    "Beer_price": 2,
    "Cafe_price": "1,3",
    "Soda_price": "2,3",
    "Longitude": "41,42042605",
    "Latitude": "2,095249004",
    "Rate": "4,5"
  },
  {
    "ID": 139,
    "Has_Darts": 1,
    "Has_football": 1,
    "Has_pool": 1,
    "Beer_price": "1,5",
    "Cafe_price": "1,3",
    "Soda_price": "2,1",
    "Longitude": "41,39709704",
    "Latitude": "2,027580943",
    "Rate": 3
  },
  {
    "ID": 140,
    "Has_Darts": 1,
    "Has_football": 0,
    "Has_pool": 1,
    "Beer_price": "1,6",
    "Cafe_price": "1,4",
    "Soda_price": 2,
    "Longitude": "41,39531225",
    "Latitude": "2,065871245",
    "Rate": "4,5"
  },
  {
    "ID": 141,
    "Has_Darts": 0,
    "Has_football": 0,
    "Has_pool": 0,
    "Beer_price": 1,
    "Cafe_price": "1,3",
    "Soda_price": "1,6",
    "Longitude": "41,35872711",
    "Latitude": "2,086181497",
    "Rate": 1
  },
  {
    "ID": 142,
    "Has_Darts": 1,
    "Has_football": 0,
    "Has_pool": 0,
    "Beer_price": "1,5",
    "Cafe_price": "1,3",
    "Soda_price": "1,4",
    "Longitude": "41,44085846",
    "Latitude": "2,048672142",
    "Rate": "2,5"
  },
  {
    "ID": 143,
    "Has_Darts": 1,
    "Has_football": 0,
    "Has_pool": 0,
    "Beer_price": "1,6",
    "Cafe_price": "1,4",
    "Soda_price": "1,9",
    "Longitude": "41,38655771",
    "Latitude": "2,009558979",
    "Rate": 1
  },
  {
    "ID": 144,
    "Has_Darts": 1,
    "Has_football": 1,
    "Has_pool": 1,
    "Beer_price": "1,6",
    "Cafe_price": "1,5",
    "Soda_price": "1,3",
    "Longitude": "41,37675723",
    "Latitude": "2,083253906",
    "Rate": "0,5"
  },
  {
    "ID": 145,
    "Has_Darts": 1,
    "Has_football": 0,
    "Has_pool": 0,
    "Beer_price": "1,8",
    "Cafe_price": "1,2",
    "Soda_price": "1,6",
    "Longitude": "41,41877593",
    "Latitude": "2,075270133",
    "Rate": 0
  },
  {
    "ID": 146,
    "Has_Darts": 0,
    "Has_football": 1,
    "Has_pool": 1,
    "Beer_price": "0,9",
    "Cafe_price": "1,3",
    "Soda_price": "2,1",
    "Longitude": "41,43369736",
    "Latitude": "2,104418471",
    "Rate": "3,5"
  },
  {
    "ID": 147,
    "Has_Darts": 0,
    "Has_football": 1,
    "Has_pool": 0,
    "Beer_price": "1,8",
    "Cafe_price": "1,6",
    "Soda_price": "1,7",
    "Longitude": "41,37881527",
    "Latitude": "2,009898035",
    "Rate": "3,5"
  },
  {
    "ID": 148,
    "Has_Darts": 1,
    "Has_football": 0,
    "Has_pool": 0,
    "Beer_price": "2,3",
    "Cafe_price": "1,4",
    "Soda_price": "1,4",
    "Longitude": "41,42724094",
    "Latitude": "2,087519874",
    "Rate": 1
  },
  {
    "ID": 149,
    "Has_Darts": 0,
    "Has_football": 1,
    "Has_pool": 0,
    "Beer_price": "1,1",
    "Cafe_price": "1,4",
    "Soda_price": "1,8",
    "Longitude": "41,43751732",
    "Latitude": "2,04719618",
    "Rate": 3
  },
  {
    "ID": 150,
    "Has_Darts": 0,
    "Has_football": 0,
    "Has_pool": 0,
    "Beer_price": "1,5",
    "Cafe_price": "1,3",
    "Soda_price": "1,8",
    "Longitude": "41,36426008",
    "Latitude": "2,09216316",
    "Rate": 4
  },
  {
    "ID": 151,
    "Has_Darts": 1,
    "Has_football": 1,
    "Has_pool": 0,
    "Beer_price": "1,4",
    "Cafe_price": "1,2",
    "Soda_price": 2,
    "Longitude": "41,43265304",
    "Latitude": "2,043565097",
    "Rate": 4
  },
  {
    "ID": 152,
    "Has_Darts": 0,
    "Has_football": 0,
    "Has_pool": 0,
    "Beer_price": 2,
    "Cafe_price": 1,
    "Soda_price": "1,7",
    "Longitude": "41,40324665",
    "Latitude": "2,076955252",
    "Rate": "1,5"
  },
  {
    "ID": 153,
    "Has_Darts": 1,
    "Has_football": 0,
    "Has_pool": 1,
    "Beer_price": "1,2",
    "Cafe_price": "1,2",
    "Soda_price": "1,5",
    "Longitude": "41,41688295",
    "Latitude": "2,038291214",
    "Rate": 5
  },
  {
    "ID": 154,
    "Has_Darts": 0,
    "Has_football": 0,
    "Has_pool": 1,
    "Beer_price": "1,2",
    "Cafe_price": "1,4",
    "Soda_price": "2,1",
    "Longitude": "41,40289609",
    "Latitude": "2,050636781",
    "Rate": "4,5"
  },
  {
    "ID": 155,
    "Has_Darts": 1,
    "Has_football": 0,
    "Has_pool": 0,
    "Beer_price": "1,3",
    "Cafe_price": "1,6",
    "Soda_price": "1,1",
    "Longitude": "41,38129495",
    "Latitude": "2,067996946",
    "Rate": "0,5"
  },
  {
    "ID": 156,
    "Has_Darts": 0,
    "Has_football": 1,
    "Has_pool": 1,
    "Beer_price": "1,9",
    "Cafe_price": "1,2",
    "Soda_price": "1,9",
    "Longitude": "41,43521046",
    "Latitude": "2,04366448",
    "Rate": 1
  },
  {
    "ID": 157,
    "Has_Darts": 0,
    "Has_football": 1,
    "Has_pool": 0,
    "Beer_price": "1,3",
    "Cafe_price": "1,2",
    "Soda_price": "1,8",
    "Longitude": "41,38754055",
    "Latitude": "2,026181875",
    "Rate": 1
  },
  {
    "ID": 158,
    "Has_Darts": 0,
    "Has_football": 0,
    "Has_pool": 1,
    "Beer_price": "0,8",
    "Cafe_price": "1,3",
    "Soda_price": "1,4",
    "Longitude": "41,36297117",
    "Latitude": "2,053088992",
    "Rate": 2
  },
  {
    "ID": 159,
    "Has_Darts": 0,
    "Has_football": 1,
    "Has_pool": 0,
    "Beer_price": "1,2",
    "Cafe_price": "1,4",
    "Soda_price": "1,9",
    "Longitude": "41,39693966",
    "Latitude": "2,050696156",
    "Rate": 3
  },
  {
    "ID": 160,
    "Has_Darts": 1,
    "Has_football": 1,
    "Has_pool": 1,
    "Beer_price": "0,9",
    "Cafe_price": "1,3",
    "Soda_price": "1,9",
    "Longitude": "41,38345368",
    "Latitude": "2,015604287",
    "Rate": "4,5"
  },
  {
    "ID": 161,
    "Has_Darts": 0,
    "Has_football": 1,
    "Has_pool": 0,
    "Beer_price": "1,8",
    "Cafe_price": "1,3",
    "Soda_price": "1,7",
    "Longitude": "41,37382316",
    "Latitude": "2,054987718",
    "Rate": 1
  },
  {
    "ID": 162,
    "Has_Darts": 0,
    "Has_football": 1,
    "Has_pool": 1,
    "Beer_price": "2,2",
    "Cafe_price": "1,5",
    "Soda_price": "1,8",
    "Longitude": "41,43864566",
    "Latitude": "2,10131442",
    "Rate": "0,5"
  },
  {
    "ID": 163,
    "Has_Darts": 1,
    "Has_football": 1,
    "Has_pool": 0,
    "Beer_price": "1,4",
    "Cafe_price": "1,5",
    "Soda_price": "1,7",
    "Longitude": "41,44194895",
    "Latitude": "2,071186332",
    "Rate": 0
  },
  {
    "ID": 164,
    "Has_Darts": 0,
    "Has_football": 0,
    "Has_pool": 0,
    "Beer_price": "1,9",
    "Cafe_price": "1,2",
    "Soda_price": "2,1",
    "Longitude": "41,38577158",
    "Latitude": "2,077676793",
    "Rate": 1
  },
  {
    "ID": 165,
    "Has_Darts": 1,
    "Has_football": 0,
    "Has_pool": 1,
    "Beer_price": "1,6",
    "Cafe_price": "1,4",
    "Soda_price": "1,5",
    "Longitude": "41,42987468",
    "Latitude": "2,071692134",
    "Rate": "1,5"
  },
  {
    "ID": 166,
    "Has_Darts": 1,
    "Has_football": 0,
    "Has_pool": 1,
    "Beer_price": "1,7",
    "Cafe_price": "1,3",
    "Soda_price": "1,4",
    "Longitude": "41,44133741",
    "Latitude": "2,101357139",
    "Rate": 3
  },
  {
    "ID": 167,
    "Has_Darts": 0,
    "Has_football": 1,
    "Has_pool": 1,
    "Beer_price": "1,5",
    "Cafe_price": "1,4",
    "Soda_price": 2,
    "Longitude": "41,42623716",
    "Latitude": "2,064228826",
    "Rate": 0
  },
  {
    "ID": 168,
    "Has_Darts": 0,
    "Has_football": 1,
    "Has_pool": 1,
    "Beer_price": "1,6",
    "Cafe_price": "1,4",
    "Soda_price": "1,6",
    "Longitude": "41,36207744",
    "Latitude": "2,028861664",
    "Rate": "2,5"
  },
  {
    "ID": 169,
    "Has_Darts": 0,
    "Has_football": 1,
    "Has_pool": 1,
    "Beer_price": "1,4",
    "Cafe_price": "1,5",
    "Soda_price": "1,3",
    "Longitude": "41,37340893",
    "Latitude": "2,053843137",
    "Rate": 2
  },
  {
    "ID": 170,
    "Has_Darts": 1,
    "Has_football": 0,
    "Has_pool": 1,
    "Beer_price": "0,8",
    "Cafe_price": "1,7",
    "Soda_price": "1,7",
    "Longitude": "41,38444976",
    "Latitude": "2,009994679",
    "Rate": 0
  },
  {
    "ID": 171,
    "Has_Darts": 1,
    "Has_football": 0,
    "Has_pool": 0,
    "Beer_price": "1,4",
    "Cafe_price": "1,5",
    "Soda_price": "1,9",
    "Longitude": "41,41693414",
    "Latitude": "2,034602007",
    "Rate": "4,5"
  },
  {
    "ID": 172,
    "Has_Darts": 0,
    "Has_football": 0,
    "Has_pool": 0,
    "Beer_price": "1,7",
    "Cafe_price": "0,9",
    "Soda_price": "1,9",
    "Longitude": "41,39796334",
    "Latitude": "2,082633831",
    "Rate": "4,5"
  },
  {
    "ID": 173,
    "Has_Darts": 0,
    "Has_football": 1,
    "Has_pool": 1,
    "Beer_price": "1,5",
    "Cafe_price": "1,4",
    "Soda_price": "1,2",
    "Longitude": "41,44281816",
    "Latitude": "2,047601051",
    "Rate": "2,5"
  },
  {
    "ID": 174,
    "Has_Darts": 0,
    "Has_football": 1,
    "Has_pool": 1,
    "Beer_price": "1,7",
    "Cafe_price": 1,
    "Soda_price": "1,7",
    "Longitude": "41,38037623",
    "Latitude": "2,053371751",
    "Rate": 1
  },
  {
    "ID": 175,
    "Has_Darts": 1,
    "Has_football": 1,
    "Has_pool": 1,
    "Beer_price": "1,6",
    "Cafe_price": "1,6",
    "Soda_price": 2,
    "Longitude": "41,41835398",
    "Latitude": "2,033324885",
    "Rate": 3
  },
  {
    "ID": 176,
    "Has_Darts": 0,
    "Has_football": 1,
    "Has_pool": 1,
    "Beer_price": "1,5",
    "Cafe_price": "1,2",
    "Soda_price": "1,8",
    "Longitude": "41,42553389",
    "Latitude": "2,063291889",
    "Rate": 4
  },
  {
    "ID": 177,
    "Has_Darts": 0,
    "Has_football": 1,
    "Has_pool": 0,
    "Beer_price": "1,6",
    "Cafe_price": "1,4",
    "Soda_price": "1,7",
    "Longitude": "41,43812472",
    "Latitude": "2,074608243",
    "Rate": "4,5"
  },
  {
    "ID": 178,
    "Has_Darts": 0,
    "Has_football": 1,
    "Has_pool": 0,
    "Beer_price": "1,3",
    "Cafe_price": "1,2",
    "Soda_price": "1,8",
    "Longitude": "41,38685856",
    "Latitude": "2,100527793",
    "Rate": "1,5"
  },
  {
    "ID": 179,
    "Has_Darts": 0,
    "Has_football": 0,
    "Has_pool": 0,
    "Beer_price": 2,
    "Cafe_price": "1,2",
    "Soda_price": "1,2",
    "Longitude": "41,42423706",
    "Latitude": "2,040837025",
    "Rate": "2,5"
  },
  {
    "ID": 180,
    "Has_Darts": 1,
    "Has_football": 0,
    "Has_pool": 1,
    "Beer_price": "1,9",
    "Cafe_price": "1,3",
    "Soda_price": "1,9",
    "Longitude": "41,38120489",
    "Latitude": "2,037034539",
    "Rate": "4,5"
  },
  {
    "ID": 181,
    "Has_Darts": 0,
    "Has_football": 0,
    "Has_pool": 1,
    "Beer_price": 2,
    "Cafe_price": "1,5",
    "Soda_price": "1,2",
    "Longitude": "41,42434597",
    "Latitude": "2,009501842",
    "Rate": 1
  },
  {
    "ID": 182,
    "Has_Darts": 0,
    "Has_football": 1,
    "Has_pool": 0,
    "Beer_price": 1,
    "Cafe_price": "1,2",
    "Soda_price": "1,6",
    "Longitude": "41,40271101",
    "Latitude": "2,067163094",
    "Rate": "4,5"
  },
  {
    "ID": 183,
    "Has_Darts": 0,
    "Has_football": 1,
    "Has_pool": 1,
    "Beer_price": "1,7",
    "Cafe_price": "1,6",
    "Soda_price": "2,2",
    "Longitude": "41,38258378",
    "Latitude": "2,04264241",
    "Rate": 4
  },
  {
    "ID": 184,
    "Has_Darts": 0,
    "Has_football": 0,
    "Has_pool": 1,
    "Beer_price": "1,1",
    "Cafe_price": "1,1",
    "Soda_price": "1,9",
    "Longitude": "41,40532704",
    "Latitude": "2,09732579",
    "Rate": "1,5"
  },
  {
    "ID": 185,
    "Has_Darts": 0,
    "Has_football": 0,
    "Has_pool": 1,
    "Beer_price": "1,4",
    "Cafe_price": "1,3",
    "Soda_price": "1,7",
    "Longitude": "41,43984889",
    "Latitude": "2,009672334",
    "Rate": 1
  },
  {
    "ID": 186,
    "Has_Darts": 0,
    "Has_football": 0,
    "Has_pool": 1,
    "Beer_price": "1,4",
    "Cafe_price": "1,4",
    "Soda_price": "1,6",
    "Longitude": "41,38647304",
    "Latitude": "2,007951642",
    "Rate": "0,5"
  },
  {
    "ID": 187,
    "Has_Darts": 1,
    "Has_football": 0,
    "Has_pool": 0,
    "Beer_price": "1,6",
    "Cafe_price": "1,3",
    "Soda_price": "1,9",
    "Longitude": "41,35842804",
    "Latitude": "2,027288537",
    "Rate": "3,5"
  },
  {
    "ID": 188,
    "Has_Darts": 0,
    "Has_football": 0,
    "Has_pool": 0,
    "Beer_price": "1,8",
    "Cafe_price": "1,6",
    "Soda_price": "1,7",
    "Longitude": "41,40684266",
    "Latitude": "2,044846688",
    "Rate": 4
  },
  {
    "ID": 189,
    "Has_Darts": 0,
    "Has_football": 1,
    "Has_pool": 1,
    "Beer_price": "1,5",
    "Cafe_price": "1,1",
    "Soda_price": "1,7",
    "Longitude": "41,36469411",
    "Latitude": "2,030999899",
    "Rate": "3,5"
  },
  {
    "ID": 190,
    "Has_Darts": 0,
    "Has_football": 1,
    "Has_pool": 0,
    "Beer_price": "1,2",
    "Cafe_price": "1,1",
    "Soda_price": "1,4",
    "Longitude": "41,38164955",
    "Latitude": "2,046022324",
    "Rate": "4,5"
  },
  {
    "ID": 191,
    "Has_Darts": 1,
    "Has_football": 0,
    "Has_pool": 1,
    "Beer_price": "1,8",
    "Cafe_price": "1,6",
    "Soda_price": "1,7",
    "Longitude": "41,42968134",
    "Latitude": "2,083721298",
    "Rate": 4
  },
  {
    "ID": 192,
    "Has_Darts": 1,
    "Has_football": 0,
    "Has_pool": 0,
    "Beer_price": "1,5",
    "Cafe_price": "1,4",
    "Soda_price": "2,2",
    "Longitude": "41,37365749",
    "Latitude": "2,090944573",
    "Rate": "4,5"
  },
  {
    "ID": 193,
    "Has_Darts": 0,
    "Has_football": 0,
    "Has_pool": 1,
    "Beer_price": "1,6",
    "Cafe_price": "1,4",
    "Soda_price": 2,
    "Longitude": "41,39758747",
    "Latitude": "2,041966549",
    "Rate": "2,5"
  },
  {
    "ID": 194,
    "Has_Darts": 0,
    "Has_football": 0,
    "Has_pool": 0,
    "Beer_price": "1,4",
    "Cafe_price": "0,9",
    "Soda_price": "1,8",
    "Longitude": "41,42345848",
    "Latitude": "2,038899375",
    "Rate": "0,5"
  },
  {
    "ID": 195,
    "Has_Darts": 0,
    "Has_football": 1,
    "Has_pool": 1,
    "Beer_price": "1,3",
    "Cafe_price": 1,
    "Soda_price": "1,3",
    "Longitude": "41,4273164",
    "Latitude": "2,010727004",
    "Rate": 1
  },
  {
    "ID": 196,
    "Has_Darts": 1,
    "Has_football": 0,
    "Has_pool": 0,
    "Beer_price": "1,5",
    "Cafe_price": "1,4",
    "Soda_price": "2,9",
    "Longitude": "41,36727393",
    "Latitude": "2,101031995",
    "Rate": 1
  },
  {
    "ID": 197,
    "Has_Darts": 0,
    "Has_football": 1,
    "Has_pool": 1,
    "Beer_price": "0,9",
    "Cafe_price": "1,1",
    "Soda_price": "2,1",
    "Longitude": "41,42227962",
    "Latitude": "2,087182781",
    "Rate": 1
  },
  {
    "ID": 198,
    "Has_Darts": 1,
    "Has_football": 0,
    "Has_pool": 0,
    "Beer_price": 1,
    "Cafe_price": 1,
    "Soda_price": "1,6",
    "Longitude": "41,43487091",
    "Latitude": "2,009293207",
    "Rate": 1
  },
  {
    "ID": 199,
    "Has_Darts": 0,
    "Has_football": 0,
    "Has_pool": 1,
    "Beer_price": "1,6",
    "Cafe_price": "1,2",
    "Soda_price": "1,9",
    "Longitude": "41,41995635",
    "Latitude": "2,023498414",
    "Rate": 5
  },
  {
    "ID": 200,
    "Has_Darts": 0,
    "Has_football": 1,
    "Has_pool": 0,
    "Beer_price": "1,2",
    "Cafe_price": "1,6",
    "Soda_price": "1,7",
    "Longitude": "41,40736846",
    "Latitude": "2,099453671",
    "Rate": 4
  },
  {
    "ID": 201,
    "Has_Darts": 0,
    "Has_football": 0,
    "Has_pool": 1,
    "Beer_price": "1,6",
    "Cafe_price": "1,6",
    "Soda_price": "1,8",
    "Longitude": "41,40801553",
    "Latitude": "2,103465108",
    "Rate": "2,5"
  },
  {
    "ID": 202,
    "Has_Darts": 0,
    "Has_football": 1,
    "Has_pool": 1,
    "Beer_price": "1,7",
    "Cafe_price": "1,2",
    "Soda_price": "1,5",
    "Longitude": "41,39756135",
    "Latitude": "2,007227342",
    "Rate": "0,5"
  },
  {
    "ID": 203,
    "Has_Darts": 1,
    "Has_football": 1,
    "Has_pool": 1,
    "Beer_price": "1,2",
    "Cafe_price": "1,4",
    "Soda_price": "2,1",
    "Longitude": "41,35185899",
    "Latitude": "2,031966651",
    "Rate": "0,5"
  },
  {
    "ID": 204,
    "Has_Darts": 1,
    "Has_football": 1,
    "Has_pool": 1,
    "Beer_price": "1,9",
    "Cafe_price": "1,2",
    "Soda_price": 2,
    "Longitude": "41,42191694",
    "Latitude": "2,038909644",
    "Rate": "4,5"
  },
  {
    "ID": 205,
    "Has_Darts": 1,
    "Has_football": 1,
    "Has_pool": 0,
    "Beer_price": "1,4",
    "Cafe_price": "1,1",
    "Soda_price": "1,9",
    "Longitude": "41,39080391",
    "Latitude": "2,0268824",
    "Rate": 4
  },
  {
    "ID": 206,
    "Has_Darts": 1,
    "Has_football": 1,
    "Has_pool": 0,
    "Beer_price": "1,1",
    "Cafe_price": "1,3",
    "Soda_price": "1,6",
    "Longitude": "41,39060237",
    "Latitude": "2,086134592",
    "Rate": "0,5"
  },
  {
    "ID": 207,
    "Has_Darts": 0,
    "Has_football": 1,
    "Has_pool": 0,
    "Beer_price": "1,9",
    "Cafe_price": "1,2",
    "Soda_price": "1,5",
    "Longitude": "41,37452076",
    "Latitude": "2,035393317",
    "Rate": "0,5"
  },
  {
    "ID": 208,
    "Has_Darts": 1,
    "Has_football": 0,
    "Has_pool": 1,
    "Beer_price": "1,9",
    "Cafe_price": "1,2",
    "Soda_price": "1,6",
    "Longitude": "41,35835169",
    "Latitude": "2,102471593",
    "Rate": 3
  },
  {
    "ID": 209,
    "Has_Darts": 1,
    "Has_football": 1,
    "Has_pool": 1,
    "Beer_price": "1,8",
    "Cafe_price": "1,3",
    "Soda_price": "2,1",
    "Longitude": "41,38987813",
    "Latitude": "2,010755413",
    "Rate": 0
  },
  {
    "ID": 210,
    "Has_Darts": 0,
    "Has_football": 1,
    "Has_pool": 1,
    "Beer_price": "1,9",
    "Cafe_price": 1,
    "Soda_price": "2,1",
    "Longitude": "41,41888737",
    "Latitude": "2,068725419",
    "Rate": "1,5"
  },
  {
    "ID": 211,
    "Has_Darts": 1,
    "Has_football": 0,
    "Has_pool": 0,
    "Beer_price": "1,3",
    "Cafe_price": "1,5",
    "Soda_price": "2,1",
    "Longitude": "41,39797048",
    "Latitude": "2,104328805",
    "Rate": 3
  },
  {
    "ID": 212,
    "Has_Darts": 0,
    "Has_football": 1,
    "Has_pool": 1,
    "Beer_price": "1,8",
    "Cafe_price": "1,4",
    "Soda_price": "1,6",
    "Longitude": "41,38099964",
    "Latitude": "2,05370473",
    "Rate": "4,5"
  },
  {
    "ID": 213,
    "Has_Darts": 0,
    "Has_football": 1,
    "Has_pool": 1,
    "Beer_price": "1,4",
    "Cafe_price": "1,2",
    "Soda_price": "2,5",
    "Longitude": "41,35873693",
    "Latitude": "2,09948063",
    "Rate": "0,5"
  },
  {
    "ID": 214,
    "Has_Darts": 1,
    "Has_football": 0,
    "Has_pool": 1,
    "Beer_price": "0,8",
    "Cafe_price": "1,2",
    "Soda_price": "1,9",
    "Longitude": "41,40251436",
    "Latitude": "2,021984784",
    "Rate": 2
  },
  {
    "ID": 215,
    "Has_Darts": 0,
    "Has_football": 1,
    "Has_pool": 0,
    "Beer_price": "1,4",
    "Cafe_price": "1,3",
    "Soda_price": "1,8",
    "Longitude": "41,42278189",
    "Latitude": "2,03412238",
    "Rate": 3
  },
  {
    "ID": 216,
    "Has_Darts": 1,
    "Has_football": 0,
    "Has_pool": 0,
    "Beer_price": "1,5",
    "Cafe_price": "1,4",
    "Soda_price": "2,2",
    "Longitude": "41,39344312",
    "Latitude": "2,014204058",
    "Rate": "1,5"
  },
  {
    "ID": 217,
    "Has_Darts": 1,
    "Has_football": 1,
    "Has_pool": 1,
    "Beer_price": "1,3",
    "Cafe_price": "1,4",
    "Soda_price": "1,6",
    "Longitude": "41,42015446",
    "Latitude": "2,011105328",
    "Rate": "1,5"
  },
  {
    "ID": 218,
    "Has_Darts": 1,
    "Has_football": 1,
    "Has_pool": 0,
    "Beer_price": "1,7",
    "Cafe_price": "1,3",
    "Soda_price": "1,4",
    "Longitude": "41,40281878",
    "Latitude": "2,094711098",
    "Rate": 2
  },
  {
    "ID": 219,
    "Has_Darts": 1,
    "Has_football": 0,
    "Has_pool": 0,
    "Beer_price": "1,7",
    "Cafe_price": "1,5",
    "Soda_price": 2,
    "Longitude": "41,43603419",
    "Latitude": "2,085801199",
    "Rate": "2,5"
  },
  {
    "ID": 220,
    "Has_Darts": 1,
    "Has_football": 0,
    "Has_pool": 0,
    "Beer_price": "1,2",
    "Cafe_price": "1,2",
    "Soda_price": "2,3",
    "Longitude": "41,35925158",
    "Latitude": "2,099225278",
    "Rate": "1,5"
  },
  {
    "ID": 221,
    "Has_Darts": 0,
    "Has_football": 1,
    "Has_pool": 0,
    "Beer_price": "1,5",
    "Cafe_price": "1,2",
    "Soda_price": "1,8",
    "Longitude": "41,43735051",
    "Latitude": "2,051396345",
    "Rate": 1
  },
  {
    "ID": 222,
    "Has_Darts": 0,
    "Has_football": 1,
    "Has_pool": 1,
    "Beer_price": "1,9",
    "Cafe_price": "1,7",
    "Soda_price": "1,3",
    "Longitude": "41,3748763",
    "Latitude": "2,046215575",
    "Rate": "2,5"
  },
  {
    "ID": 223,
    "Has_Darts": 0,
    "Has_football": 0,
    "Has_pool": 1,
    "Beer_price": "1,4",
    "Cafe_price": "1,5",
    "Soda_price": "1,3",
    "Longitude": "41,4417132",
    "Latitude": "2,094050695",
    "Rate": "1,5"
  },
  {
    "ID": 224,
    "Has_Darts": 1,
    "Has_football": 1,
    "Has_pool": 0,
    "Beer_price": "1,4",
    "Cafe_price": "1,4",
    "Soda_price": "1,5",
    "Longitude": "41,3987477",
    "Latitude": "2,091938968",
    "Rate": "4,5"
  },
  {
    "ID": 225,
    "Has_Darts": 1,
    "Has_football": 0,
    "Has_pool": 1,
    "Beer_price": "1,7",
    "Cafe_price": "1,3",
    "Soda_price": 2,
    "Longitude": "41,38075898",
    "Latitude": "2,079319282",
    "Rate": "0,5"
  },
  {
    "ID": 226,
    "Has_Darts": 1,
    "Has_football": 1,
    "Has_pool": 1,
    "Beer_price": "1,8",
    "Cafe_price": "1,4",
    "Soda_price": "1,9",
    "Longitude": "41,40593809",
    "Latitude": "2,023537187",
    "Rate": 5
  },
  {
    "ID": 227,
    "Has_Darts": 1,
    "Has_football": 0,
    "Has_pool": 0,
    "Beer_price": "1,4",
    "Cafe_price": "1,3",
    "Soda_price": "1,8",
    "Longitude": "41,41941353",
    "Latitude": "2,067375098",
    "Rate": 0
  },
  {
    "ID": 228,
    "Has_Darts": 1,
    "Has_football": 1,
    "Has_pool": 0,
    "Beer_price": "1,4",
    "Cafe_price": "1,4",
    "Soda_price": 2,
    "Longitude": "41,36894978",
    "Latitude": "2,066527015",
    "Rate": 4
  },
  {
    "ID": 229,
    "Has_Darts": 0,
    "Has_football": 1,
    "Has_pool": 1,
    "Beer_price": "1,8",
    "Cafe_price": "1,3",
    "Soda_price": "1,9",
    "Longitude": "41,38704897",
    "Latitude": "2,075632887",
    "Rate": 3
  },
  {
    "ID": 230,
    "Has_Darts": 1,
    "Has_football": 1,
    "Has_pool": 1,
    "Beer_price": "1,3",
    "Cafe_price": "1,5",
    "Soda_price": "1,5",
    "Longitude": "41,40748997",
    "Latitude": "2,101424395",
    "Rate": 2
  },
  {
    "ID": 231,
    "Has_Darts": 1,
    "Has_football": 1,
    "Has_pool": 1,
    "Beer_price": "0,9",
    "Cafe_price": "1,6",
    "Soda_price": "1,8",
    "Longitude": "41,35682059",
    "Latitude": "2,059887897",
    "Rate": 3
  },
  {
    "ID": 232,
    "Has_Darts": 1,
    "Has_football": 0,
    "Has_pool": 1,
    "Beer_price": "1,4",
    "Cafe_price": "1,3",
    "Soda_price": "2,4",
    "Longitude": "41,35663913",
    "Latitude": "2,087883933",
    "Rate": 3
  },
  {
    "ID": 233,
    "Has_Darts": 0,
    "Has_football": 0,
    "Has_pool": 1,
    "Beer_price": "1,5",
    "Cafe_price": "1,2",
    "Soda_price": "1,1",
    "Longitude": "41,42216455",
    "Latitude": "2,075778233",
    "Rate": 3
  },
  {
    "ID": 234,
    "Has_Darts": 0,
    "Has_football": 1,
    "Has_pool": 0,
    "Beer_price": "1,7",
    "Cafe_price": "1,3",
    "Soda_price": "1,8",
    "Longitude": "41,42958261",
    "Latitude": "2,077409367",
    "Rate": 3
  },
  {
    "ID": 235,
    "Has_Darts": 1,
    "Has_football": 0,
    "Has_pool": 1,
    "Beer_price": "1,5",
    "Cafe_price": "1,2",
    "Soda_price": "1,7",
    "Longitude": "41,39805961",
    "Latitude": "2,047302321",
    "Rate": "2,5"
  },
  {
    "ID": 236,
    "Has_Darts": 1,
    "Has_football": 1,
    "Has_pool": 1,
    "Beer_price": "1,9",
    "Cafe_price": "1,5",
    "Soda_price": 2,
    "Longitude": "41,35878482",
    "Latitude": "2,097825981",
    "Rate": 1
  },
  {
    "ID": 237,
    "Has_Darts": 0,
    "Has_football": 0,
    "Has_pool": 1,
    "Beer_price": "1,8",
    "Cafe_price": "1,2",
    "Soda_price": "2,3",
    "Longitude": "41,42939091",
    "Latitude": "2,045041034",
    "Rate": 3
  },
  {
    "ID": 238,
    "Has_Darts": 0,
    "Has_football": 1,
    "Has_pool": 0,
    "Beer_price": "1,6",
    "Cafe_price": "1,2",
    "Soda_price": "1,3",
    "Longitude": "41,40870005",
    "Latitude": "2,008300497",
    "Rate": 4
  },
  {
    "ID": 239,
    "Has_Darts": 0,
    "Has_football": 1,
    "Has_pool": 0,
    "Beer_price": "1,3",
    "Cafe_price": "1,4",
    "Soda_price": "1,6",
    "Longitude": "41,40175086",
    "Latitude": "2,072659271",
    "Rate": 5
  },
  {
    "ID": 240,
    "Has_Darts": 0,
    "Has_football": 0,
    "Has_pool": 0,
    "Beer_price": "1,5",
    "Cafe_price": "1,3",
    "Soda_price": "2,1",
    "Longitude": "41,38483269",
    "Latitude": "2,030688415",
    "Rate": "4,5"
  },
  {
    "ID": 241,
    "Has_Darts": 0,
    "Has_football": 1,
    "Has_pool": 1,
    "Beer_price": "1,5",
    "Cafe_price": "1,1",
    "Soda_price": "1,9",
    "Longitude": "41,35641993",
    "Latitude": "2,096588981",
    "Rate": 4
  },
  {
    "ID": 242,
    "Has_Darts": 0,
    "Has_football": 0,
    "Has_pool": 0,
    "Beer_price": "1,2",
    "Cafe_price": "1,5",
    "Soda_price": "1,7",
    "Longitude": "41,40043562",
    "Latitude": "2,049247338",
    "Rate": 3
  },
  {
    "ID": 243,
    "Has_Darts": 0,
    "Has_football": 0,
    "Has_pool": 0,
    "Beer_price": "1,4",
    "Cafe_price": "1,3",
    "Soda_price": "1,9",
    "Longitude": "41,42459706",
    "Latitude": "2,017257314",
    "Rate": 2
  },
  {
    "ID": 244,
    "Has_Darts": 0,
    "Has_football": 1,
    "Has_pool": 0,
    "Beer_price": 1,
    "Cafe_price": "1,4",
    "Soda_price": "1,5",
    "Longitude": "41,35385387",
    "Latitude": "2,05437959",
    "Rate": "3,5"
  },
  {
    "ID": 245,
    "Has_Darts": 1,
    "Has_football": 1,
    "Has_pool": 0,
    "Beer_price": "1,1",
    "Cafe_price": "1,4",
    "Soda_price": 2,
    "Longitude": "41,37096644",
    "Latitude": "2,064313524",
    "Rate": 0
  },
  {
    "ID": 246,
    "Has_Darts": 1,
    "Has_football": 1,
    "Has_pool": 0,
    "Beer_price": "1,4",
    "Cafe_price": "1,6",
    "Soda_price": "1,4",
    "Longitude": "41,42920953",
    "Latitude": "2,026111687",
    "Rate": 3
  },
  {
    "ID": 247,
    "Has_Darts": 1,
    "Has_football": 1,
    "Has_pool": 1,
    "Beer_price": "1,7",
    "Cafe_price": "1,3",
    "Soda_price": "1,7",
    "Longitude": "41,43179332",
    "Latitude": "2,07896232",
    "Rate": "1,5"
  },
  {
    "ID": 248,
    "Has_Darts": 1,
    "Has_football": 0,
    "Has_pool": 0,
    "Beer_price": "0,9",
    "Cafe_price": "1,6",
    "Soda_price": "1,6",
    "Longitude": "41,36507633",
    "Latitude": "2,077195866",
    "Rate": "1,5"
  },
  {
    "ID": 249,
    "Has_Darts": 1,
    "Has_football": 1,
    "Has_pool": 0,
    "Beer_price": "1,6",
    "Cafe_price": "1,4",
    "Soda_price": "1,5",
    "Longitude": "41,37143058",
    "Latitude": "2,022601317",
    "Rate": "3,5"
  },
  {
    "ID": 250,
    "Has_Darts": 0,
    "Has_football": 0,
    "Has_pool": 0,
    "Beer_price": "1,4",
    "Cafe_price": "1,5",
    "Soda_price": "1,4",
    "Longitude": "41,3968551",
    "Latitude": "2,024306641",
    "Rate": "3,5"
  },
  {
    "ID": 251,
    "Has_Darts": 1,
    "Has_football": 0,
    "Has_pool": 0,
    "Beer_price": "1,3",
    "Cafe_price": "1,6",
    "Soda_price": "1,8",
    "Longitude": "41,38477271",
    "Latitude": "2,081245051",
    "Rate": "3,5"
  },
  {
    "ID": 252,
    "Has_Darts": 0,
    "Has_football": 0,
    "Has_pool": 0,
    "Beer_price": "1,6",
    "Cafe_price": "1,6",
    "Soda_price": "1,9",
    "Longitude": "41,36780793",
    "Latitude": "2,099028672",
    "Rate": "2,5"
  },
  {
    "ID": 253,
    "Has_Darts": 1,
    "Has_football": 1,
    "Has_pool": 1,
    "Beer_price": "1,9",
    "Cafe_price": "1,2",
    "Soda_price": "2,1",
    "Longitude": "41,35427211",
    "Latitude": "2,078147475",
    "Rate": "2,5"
  },
  {
    "ID": 254,
    "Has_Darts": 0,
    "Has_football": 1,
    "Has_pool": 1,
    "Beer_price": "1,8",
    "Cafe_price": "1,5",
    "Soda_price": "1,7",
    "Longitude": "41,37475639",
    "Latitude": "2,03568645",
    "Rate": 4
  },
  {
    "ID": 255,
    "Has_Darts": 0,
    "Has_football": 1,
    "Has_pool": 1,
    "Beer_price": "1,9",
    "Cafe_price": 1,
    "Soda_price": "1,7",
    "Longitude": "41,39190071",
    "Latitude": "2,049391463",
    "Rate": 4
  },
  {
    "ID": 256,
    "Has_Darts": 1,
    "Has_football": 1,
    "Has_pool": 1,
    "Beer_price": "1,3",
    "Cafe_price": "1,2",
    "Soda_price": "1,9",
    "Longitude": "41,4162362",
    "Latitude": "2,057412363",
    "Rate": "4,5"
  },
  {
    "ID": 257,
    "Has_Darts": 0,
    "Has_football": 1,
    "Has_pool": 1,
    "Beer_price": 1,
    "Cafe_price": "1,3",
    "Soda_price": "1,4",
    "Longitude": "41,3648838",
    "Latitude": "2,097149388",
    "Rate": "4,5"
  },
  {
    "ID": 258,
    "Has_Darts": 1,
    "Has_football": 0,
    "Has_pool": 0,
    "Beer_price": "1,4",
    "Cafe_price": "1,1",
    "Soda_price": "1,6",
    "Longitude": "41,36297308",
    "Latitude": "2,078687084",
    "Rate": "4,5"
  },
  {
    "ID": 259,
    "Has_Darts": 0,
    "Has_football": 0,
    "Has_pool": 1,
    "Beer_price": "1,2",
    "Cafe_price": "1,1",
    "Soda_price": "1,8",
    "Longitude": "41,42471351",
    "Latitude": "2,049609208",
    "Rate": 3
  },
  {
    "ID": 260,
    "Has_Darts": 1,
    "Has_football": 1,
    "Has_pool": 0,
    "Beer_price": "1,7",
    "Cafe_price": "1,2",
    "Soda_price": "1,5",
    "Longitude": "41,40709465",
    "Latitude": "2,088280019",
    "Rate": 3
  },
  {
    "ID": 261,
    "Has_Darts": 1,
    "Has_football": 1,
    "Has_pool": 1,
    "Beer_price": "1,4",
    "Cafe_price": "1,6",
    "Soda_price": "2,7",
    "Longitude": "41,35235028",
    "Latitude": "2,051704671",
    "Rate": "2,5"
  },
  {
    "ID": 262,
    "Has_Darts": 0,
    "Has_football": 0,
    "Has_pool": 1,
    "Beer_price": "1,2",
    "Cafe_price": "1,6",
    "Soda_price": "1,7",
    "Longitude": "41,38401299",
    "Latitude": "2,04071655",
    "Rate": 4
  },
  {
    "ID": 263,
    "Has_Darts": 1,
    "Has_football": 0,
    "Has_pool": 1,
    "Beer_price": "1,6",
    "Cafe_price": "1,1",
    "Soda_price": "1,9",
    "Longitude": "41,39124864",
    "Latitude": "2,045653117",
    "Rate": 3
  },
  {
    "ID": 264,
    "Has_Darts": 1,
    "Has_football": 0,
    "Has_pool": 0,
    "Beer_price": "1,6",
    "Cafe_price": "1,3",
    "Soda_price": "1,3",
    "Longitude": "41,43791245",
    "Latitude": "2,009413025",
    "Rate": "3,5"
  },
  {
    "ID": 265,
    "Has_Darts": 1,
    "Has_football": 0,
    "Has_pool": 0,
    "Beer_price": "1,8",
    "Cafe_price": "1,1",
    "Soda_price": "2,2",
    "Longitude": "41,37891109",
    "Latitude": "2,071708219",
    "Rate": "4,5"
  },
  {
    "ID": 266,
    "Has_Darts": 1,
    "Has_football": 0,
    "Has_pool": 1,
    "Beer_price": "1,1",
    "Cafe_price": "1,3",
    "Soda_price": "1,5",
    "Longitude": "41,36892613",
    "Latitude": "2,043473812",
    "Rate": "1,5"
  },
  {
    "ID": 267,
    "Has_Darts": 0,
    "Has_football": 0,
    "Has_pool": 1,
    "Beer_price": "0,5",
    "Cafe_price": "1,3",
    "Soda_price": "1,9",
    "Longitude": "41,42023566",
    "Latitude": "2,032135971",
    "Rate": "0,5"
  },
  {
    "ID": 268,
    "Has_Darts": 1,
    "Has_football": 1,
    "Has_pool": 1,
    "Beer_price": "1,6",
    "Cafe_price": "1,2",
    "Soda_price": "1,8",
    "Longitude": "41,36252944",
    "Latitude": "2,03317146",
    "Rate": 2
  },
  {
    "ID": 269,
    "Has_Darts": 1,
    "Has_football": 0,
    "Has_pool": 1,
    "Beer_price": "0,8",
    "Cafe_price": "1,3",
    "Soda_price": "2,2",
    "Longitude": "41,37873762",
    "Latitude": "2,066765007",
    "Rate": 3
  },
  {
    "ID": 270,
    "Has_Darts": 0,
    "Has_football": 1,
    "Has_pool": 0,
    "Beer_price": "1,5",
    "Cafe_price": "1,6",
    "Soda_price": "1,3",
    "Longitude": "41,38863162",
    "Latitude": "2,059536823",
    "Rate": "4,5"
  },
  {
    "ID": 271,
    "Has_Darts": 0,
    "Has_football": 1,
    "Has_pool": 1,
    "Beer_price": "1,6",
    "Cafe_price": "1,1",
    "Soda_price": "1,9",
    "Longitude": "41,37886219",
    "Latitude": "2,025904918",
    "Rate": 4
  },
  {
    "ID": 272,
    "Has_Darts": 1,
    "Has_football": 0,
    "Has_pool": 1,
    "Beer_price": "1,6",
    "Cafe_price": "1,2",
    "Soda_price": "1,6",
    "Longitude": "41,43690237",
    "Latitude": "2,064223925",
    "Rate": "4,5"
  },
  {
    "ID": 273,
    "Has_Darts": 1,
    "Has_football": 1,
    "Has_pool": 0,
    "Beer_price": "1,4",
    "Cafe_price": "1,6",
    "Soda_price": "1,6",
    "Longitude": "41,42794041",
    "Latitude": "2,05824299",
    "Rate": 2
  },
  {
    "ID": 274,
    "Has_Darts": 0,
    "Has_football": 0,
    "Has_pool": 1,
    "Beer_price": "1,1",
    "Cafe_price": "1,7",
    "Soda_price": "1,7",
    "Longitude": "41,39784017",
    "Latitude": "2,071143087",
    "Rate": 4
  },
  {
    "ID": 275,
    "Has_Darts": 1,
    "Has_football": 0,
    "Has_pool": 0,
    "Beer_price": "1,3",
    "Cafe_price": "1,3",
    "Soda_price": "1,9",
    "Longitude": "41,38111553",
    "Latitude": "2,087171083",
    "Rate": "0,5"
  },
  {
    "ID": 276,
    "Has_Darts": 1,
    "Has_football": 1,
    "Has_pool": 0,
    "Beer_price": "2,1",
    "Cafe_price": "1,4",
    "Soda_price": "1,7",
    "Longitude": "41,37661653",
    "Latitude": "2,040414291",
    "Rate": "0,5"
  },
  {
    "ID": 277,
    "Has_Darts": 0,
    "Has_football": 0,
    "Has_pool": 1,
    "Beer_price": "1,4",
    "Cafe_price": "1,5",
    "Soda_price": "1,7",
    "Longitude": "41,37770118",
    "Latitude": "2,058805744",
    "Rate": 0
  },
  {
    "ID": 278,
    "Has_Darts": 0,
    "Has_football": 0,
    "Has_pool": 0,
    "Beer_price": "1,3",
    "Cafe_price": "1,4",
    "Soda_price": "1,3",
    "Longitude": "41,44231151",
    "Latitude": "2,061883277",
    "Rate": "1,5"
  },
  {
    "ID": 279,
    "Has_Darts": 1,
    "Has_football": 0,
    "Has_pool": 0,
    "Beer_price": "1,5",
    "Cafe_price": "1,3",
    "Soda_price": "1,7",
    "Longitude": "41,41111822",
    "Latitude": "2,050863595",
    "Rate": "2,5"
  },
  {
    "ID": 280,
    "Has_Darts": 0,
    "Has_football": 0,
    "Has_pool": 1,
    "Beer_price": "1,4",
    "Cafe_price": "1,3",
    "Soda_price": 2,
    "Longitude": "41,42219129",
    "Latitude": "2,044097162",
    "Rate": "0,5"
  },
  {
    "ID": 281,
    "Has_Darts": 1,
    "Has_football": 1,
    "Has_pool": 0,
    "Beer_price": "1,3",
    "Cafe_price": "1,4",
    "Soda_price": "2,3",
    "Longitude": "41,43443421",
    "Latitude": "2,101481984",
    "Rate": "4,5"
  },
  {
    "ID": 282,
    "Has_Darts": 0,
    "Has_football": 0,
    "Has_pool": 1,
    "Beer_price": "0,9",
    "Cafe_price": "1,5",
    "Soda_price": "1,8",
    "Longitude": "41,39676163",
    "Latitude": "2,067216363",
    "Rate": 4
  },
  {
    "ID": 283,
    "Has_Darts": 0,
    "Has_football": 1,
    "Has_pool": 1,
    "Beer_price": "1,5",
    "Cafe_price": "1,5",
    "Soda_price": "1,3",
    "Longitude": "41,36767005",
    "Latitude": "2,029557216",
    "Rate": 0
  },
  {
    "ID": 284,
    "Has_Darts": 0,
    "Has_football": 0,
    "Has_pool": 1,
    "Beer_price": "1,7",
    "Cafe_price": "1,4",
    "Soda_price": "1,9",
    "Longitude": "41,38319905",
    "Latitude": "2,02614742",
    "Rate": 4
  },
  {
    "ID": 285,
    "Has_Darts": 1,
    "Has_football": 0,
    "Has_pool": 1,
    "Beer_price": "1,5",
    "Cafe_price": "1,1",
    "Soda_price": "1,9",
    "Longitude": "41,37869896",
    "Latitude": "2,016305801",
    "Rate": "1,5"
  },
  {
    "ID": 286,
    "Has_Darts": 1,
    "Has_football": 1,
    "Has_pool": 0,
    "Beer_price": "1,4",
    "Cafe_price": "1,3",
    "Soda_price": "1,7",
    "Longitude": "41,4196805",
    "Latitude": "2,060800692",
    "Rate": 4
  },
  {
    "ID": 287,
    "Has_Darts": 0,
    "Has_football": 0,
    "Has_pool": 0,
    "Beer_price": "1,7",
    "Cafe_price": "1,1",
    "Soda_price": "1,5",
    "Longitude": "41,40721092",
    "Latitude": "2,042104057",
    "Rate": 1
  },
  {
    "ID": 288,
    "Has_Darts": 0,
    "Has_football": 0,
    "Has_pool": 0,
    "Beer_price": "1,1",
    "Cafe_price": "1,3",
    "Soda_price": "1,7",
    "Longitude": "41,37794447",
    "Latitude": "2,028081764",
    "Rate": 3
  },
  {
    "ID": 289,
    "Has_Darts": 1,
    "Has_football": 1,
    "Has_pool": 0,
    "Beer_price": "0,6",
    "Cafe_price": "1,1",
    "Soda_price": "1,7",
    "Longitude": "41,40242837",
    "Latitude": "2,040743458",
    "Rate": 1
  },
  {
    "ID": 290,
    "Has_Darts": 1,
    "Has_football": 0,
    "Has_pool": 0,
    "Beer_price": "0,9",
    "Cafe_price": "1,3",
    "Soda_price": "1,9",
    "Longitude": "41,42829908",
    "Latitude": "2,031344246",
    "Rate": "0,5"
  },
  {
    "ID": 291,
    "Has_Darts": 1,
    "Has_football": 1,
    "Has_pool": 0,
    "Beer_price": "1,4",
    "Cafe_price": "1,2",
    "Soda_price": "1,6",
    "Longitude": "41,40198295",
    "Latitude": "2,020191526",
    "Rate": 1
  },
  {
    "ID": 292,
    "Has_Darts": 1,
    "Has_football": 0,
    "Has_pool": 1,
    "Beer_price": "1,5",
    "Cafe_price": "1,2",
    "Soda_price": "1,9",
    "Longitude": "41,44013162",
    "Latitude": "2,085406936",
    "Rate": "3,5"
  },
  {
    "ID": 293,
    "Has_Darts": 1,
    "Has_football": 0,
    "Has_pool": 0,
    "Beer_price": "1,2",
    "Cafe_price": "1,3",
    "Soda_price": "1,7",
    "Longitude": "41,42283192",
    "Latitude": "2,101023955",
    "Rate": "4,5"
  },
  {
    "ID": 294,
    "Has_Darts": 0,
    "Has_football": 0,
    "Has_pool": 0,
    "Beer_price": "1,5",
    "Cafe_price": "1,2",
    "Soda_price": "1,8",
    "Longitude": "41,36946229",
    "Latitude": "2,016194442",
    "Rate": "2,5"
  },
  {
    "ID": 295,
    "Has_Darts": 1,
    "Has_football": 1,
    "Has_pool": 0,
    "Beer_price": "2,1",
    "Cafe_price": "1,3",
    "Soda_price": "1,8",
    "Longitude": "41,40950178",
    "Latitude": "2,060093385",
    "Rate": 1
  },
  {
    "ID": 296,
    "Has_Darts": 0,
    "Has_football": 1,
    "Has_pool": 1,
    "Beer_price": 2,
    "Cafe_price": "1,2",
    "Soda_price": "1,9",
    "Longitude": "41,41107579",
    "Latitude": "2,049619075",
    "Rate": 2
  },
  {
    "ID": 297,
    "Has_Darts": 0,
    "Has_football": 1,
    "Has_pool": 1,
    "Beer_price": "1,8",
    "Cafe_price": "1,2",
    "Soda_price": "1,8",
    "Longitude": "41,37686149",
    "Latitude": "2,100445021",
    "Rate": 3
  },
  {
    "ID": 298,
    "Has_Darts": 0,
    "Has_football": 1,
    "Has_pool": 0,
    "Beer_price": "1,5",
    "Cafe_price": "1,3",
    "Soda_price": "2,3",
    "Longitude": "41,41427243",
    "Latitude": "2,064774597",
    "Rate": 3
  },
  {
    "ID": 299,
    "Has_Darts": 0,
    "Has_football": 0,
    "Has_pool": 0,
    "Beer_price": "1,9",
    "Cafe_price": "1,3",
    "Soda_price": "1,4",
    "Longitude": "41,38340187",
    "Latitude": "2,066381347",
    "Rate": "3,5"
  },
  {
    "ID": 300,
    "Has_Darts": 1,
    "Has_football": 1,
    "Has_pool": 1,
    "Beer_price": "1,5",
    "Cafe_price": "1,1",
    "Soda_price": 2,
    "Longitude": "41,43231449",
    "Latitude": "2,041089551",
    "Rate": "1,5"
  }
]